MBA Data Science - USP/ESALQ - Exemplo Pesquisa Binária
…
Carregamento da base de dados

load(file = "./data/mod1_01_03_pesquisa_binaria.RData")

Contexto

São respostas binárias para 50 perguntas de 35 respondentes.

Os respondentes são gestores de empresas em 3 setores distintos.

Visualização da base de dados

PesquisaBinária

# A tibble: 35 × 51
      q1    q2    q3    q4    q5    q6    q7    q8    q9   q10   q11   q12   q13
   <dbl> <dbl> <dbl> <dbl> <dbl> <dbl> <dbl> <dbl> <dbl> <dbl> <dbl> <dbl> <dbl>
 1     0     0     0     0     0     1     0     0     0     1     0     0     1
 2     0     1     0     0     0     0     0     1     1     0     1     0     0
 3     0     1     0     1     0     1     0     1     1     0     0     0     1
 4     1     0     1     1     0     1     0     0     0     1     0     1     0
 5     1     0     0     1     1     1     0     0     1     1     0     1     0
 6     1     1     0     1     0     0     0     1     1     0     1     1     0
 7     0     1     0     1     1     0     0     0     0     0     0     1     1
 8     1     0     1     0     1     1     0     0     0     1     0     0     1
 9     0     0     0     0     0     1     0     0     0     0     0     0     1
10     0     0     0     0     0     1     1     0     0     0     0     0     1
# … with 25 more rows, and 38 more variables: q14 <dbl>, q15 <dbl>, q16 <dbl>,
#   q17 <dbl>, q18 <dbl>, q19 <dbl>, q20 <dbl>, q21 <dbl>, q22 <dbl>,
#   q23 <dbl>, q24 <dbl>, q25 <dbl>, q26 <dbl>, q27 <dbl>, q28 <dbl>,
#   q29 <dbl>, q30 <dbl>, q31 <dbl>, q32 <dbl>, q33 <dbl>, q34 <dbl>,
#   q35 <dbl>, q36 <dbl>, q37 <dbl>, q38 <dbl>, q39 <dbl>, q40 <dbl>,
#   q41 <dbl>, q42 <dbl>, q43 <dbl>, q44 <dbl>, q45 <dbl>, q46 <dbl>,
#   q47 <dbl>, q48 <dbl>, q49 <dbl>, q50 <dbl>, setor <dbl+lbl>
…
Criando variável categórica para indicação do cluster no banco de dados

O argumento ‘k’ indica a quantidade de clusters

PesquisaBinária$cluster_H <- factor(cutree(tree = cluster_hier, k = 3))
PesquisaBinária[, c('setor', 'cluster_H')]

# A tibble: 35 × 2
   setor          cluster_H
   <dbl+lbl>      <fct>    
 1 1 [saúde]      1        
 2 2 [educação]   2        
 3 2 [educação]   2        
 4 3 [transporte] 3        
 5 3 [transporte] 3        
 6 2 [educação]   2        
 7 3 [transporte] 3        
 8 3 [transporte] 3        
 9 1 [saúde]      1        
10 1 [saúde]      1        
# … with 25 more rows
…
